M48
;Layer_Color=9474304
;FILE_FORMAT=4:4
METRIC,TZ
;TYPE=PLATED
T1F00S00C0.7112
T2F00S00C0.8890
T3F00S00C0.9000
T4F00S00C1.3970
T5F00S00C3.1000
%
T01
X391160Y1162050
X467360Y1074420
X491490Y1052830
X445770Y1023620
X426720Y1003300
X467360Y901700
X468630Y830580
X1004570Y1229360
T02
X317500Y676910
Y702310
X308610Y864870
Y890270
T03
X1230630Y707390
Y732790
Y758190
Y783590
X397510Y760730
Y735330
Y709930
Y684530
Y659130
X372110
Y684530
Y709930
Y735330
Y760730
Y838200
Y863600
Y889000
Y914400
Y939800
X397510
Y914400
Y889000
Y863600
Y838200
X1154430Y1151890
X943610Y1202690
X918210
X892810
X867410
X842010
X816610
X791210
X765810
X740410
X715010
X689610
X664210
X638810
X613410
X588010
X562610
X537210
X511810
X486410
X461010
T04
X1145540Y993140
Y1043940
X1247140Y1018540
T05
X1226820Y534670
X1071880Y557530
X398780
X1225550Y1229360
X1071880Y1202690
X398780
M30
